{
  "files": [
    {
      "id": 1384615,
      "project_id": 18020,
      "batch_id": 59882,
      "duration": 81637,
      "attribute1": null,
      "attribute2": null,
      "video_id": null,
      "name": "70140_1_POV-bias-E06_wg_v010_H264",
      "attribute3": null,
      "callback_url": null,
      "description": null,
      "created_at": "2016-12-14T15:51:29.000-05:00",
      "updated_at": "2016-12-14T16:21:38.000-05:00",
      "word_count": 225,
      "thumbnail_url": null,
      "language_id": 1,
      "default_service_type_id": 1,
      "downloaded": true,
      "state": "delivered",
      "turnaround_level_id": 6,
      "deadline": "2016-12-14T17:51:29.000-05:00",
      "batch_name": "Implicit Bias 20161214",
      "error_description": ""
    },
    {
      "id": 1385068,
      "project_id": 18020,
      "batch_id": 59882,
      "duration": 178773,
      "attribute1": null,
      "attribute2": null,
      "video_id": null,
      "name": "70136_1_POV-bias-E02_wg_v011_H264",
      "attribute3": null,
      "callback_url": null,
      "description": null,
      "created_at": "2016-12-14T19:24:16.000-05:00",
      "updated_at": "2016-12-14T22:17:18.000-05:00",
      "word_count": 521,
      "thumbnail_url": null,
      "language_id": 1,
      "default_service_type_id": 1,
      "downloaded": true,
      "state": "delivered",
      "turnaround_level_id": 6,
      "deadline": "2016-12-14T21:24:16.000-05:00",
      "batch_name": "Implicit Bias 20161214",
      "error_description": ""
    },
    {
      "id": 1405439,
      "project_id": 18020,
      "batch_id": 60683,
      "duration": 225579,
      "attribute1": null,
      "attribute2": null,
      "video_id": null,
      "name": "Finecut_10_SafePassage_FB",
      "attribute3": null,
      "callback_url": null,
      "description": null,
      "created_at": "2016-12-28T21:53:08.000-05:00",
      "updated_at": "2016-12-29T11:04:27.000-05:00",
      "word_count": 478,
      "thumbnail_url": null,
      "language_id": 1,
      "default_service_type_id": 1,
      "downloaded": true,
      "state": "delivered",
      "turnaround_level_id": 6,
      "deadline": "2016-12-29T10:00:00.000-05:00",
      "batch_name": "My Latest Upload",
      "error_description": ""
    },
    {
      "id": 1421234,
      "project_id": 18020,
      "batch_id": 61152,
      "duration": 424832,
      "attribute1": null,
      "attribute2": null,
      "video_id": null,
      "name": "Madagascar-Kristof_FB",
      "attribute3": null,
      "callback_url": null,
      "description": null,
      "created_at": "2017-01-09T13:08:02.000-05:00",
      "updated_at": "2017-01-09T17:04:03.000-05:00",
      "word_count": 719,
      "thumbnail_url": null,
      "language_id": 1,
      "default_service_type_id": 1,
      "downloaded": true,
      "state": "delivered",
      "turnaround_level_id": 6,
      "deadline": "2017-01-09T15:08:02.000-05:00",
      "batch_name": "kristof",
      "error_description": ""
    },
    {
      "id": 1449746,
      "project_id": 18020,
      "batch_id": 62156,
      "duration": 178367,
      "attribute1": null,
      "attribute2": null,
      "video_id": null,
      "name": "44263_Innaug_Convo_BORMAN_SOCIAL",
      "attribute3": null,
      "callback_url": null,
      "description": null,
      "created_at": "2017-01-22T10:32:01.000-05:00",
      "updated_at": "2017-01-23T10:17:15.000-05:00",
      "word_count": 524,
      "thumbnail_url": null,
      "language_id": 1,
      "default_service_type_id": 1,
      "downloaded": true,
      "state": "delivered",
      "turnaround_level_id": 6,
      "deadline": "2017-01-23T10:00:00.000-05:00",
      "batch_name": "election convos",
      "error_description": ""
    },
    {
      "id": 1449747,
      "project_id": 18020,
      "batch_id": 62156,
      "duration": 259327,
      "attribute1": null,
      "attribute2": null,
      "video_id": null,
      "name": "44263_Innaug_Convo_BARUFFI_SOCIAL",
      "attribute3": null,
      "callback_url": null,
      "description": null,
      "created_at": "2017-01-22T10:32:02.000-05:00",
      "updated_at": "2017-01-23T10:17:04.000-05:00",
      "word_count": 650,
      "thumbnail_url": null,
      "language_id": 1,
      "default_service_type_id": 1,
      "downloaded": true,
      "state": "delivered",
      "turnaround_level_id": 6,
      "deadline": "2017-01-23T10:00:00.000-05:00",
      "batch_name": "election convos",
      "error_description": ""
    },
    {
      "id": 1503222,
      "project_id": 18020,
      "batch_id": 64183,
      "duration": 397526,
      "attribute1": null,
      "attribute2": null,
      "video_id": null,
      "name": "TakingOnTrump_H264_1080",
      "attribute3": null,
      "callback_url": null,
      "description": null,
      "created_at": "2017-02-21T10:28:24.000-05:00",
      "updated_at": "2017-02-21T12:11:01.000-05:00",
      "word_count": 868,
      "thumbnail_url": null,
      "language_id": 1,
      "default_service_type_id": 1,
      "downloaded": true,
      "state": "delivered",
      "turnaround_level_id": 6,
      "deadline": "2017-02-21T12:28:24.000-05:00",
      "batch_name": "Lawyers",
      "error_description": ""
    },
    {
      "id": 1528228,
      "project_id": 18020,
      "batch_id": 64859,
      "duration": 188331,
      "attribute1": null,
      "attribute2": null,
      "video_id": null,
      "name": "RETIREMENT_FOR_CAPTIONS",
      "attribute3": null,
      "callback_url": null,
      "description": null,
      "created_at": "2017-03-02T17:56:56.000-05:00",
      "updated_at": "2017-03-03T10:07:45.000-05:00",
      "word_count": 460,
      "thumbnail_url": null,
      "language_id": 1,
      "default_service_type_id": 1,
      "downloaded": true,
      "state": "delivered",
      "turnaround_level_id": 2,
      "deadline": "2017-03-03T01:56:56.000-05:00",
      "batch_name": "retirement",
      "error_description": ""
    },
    {
      "id": 1554006,
      "project_id": 18020,
      "batch_id": 65572,
      "duration": 355798,
      "attribute1": null,
      "attribute2": null,
      "video_id": null,
      "name": "71106_noriega_advance",
      "attribute3": null,
      "callback_url": null,
      "description": null,
      "created_at": "2017-03-13T18:10:44.000-04:00",
      "updated_at": "2017-03-15T11:27:04.000-04:00",
      "word_count": 705,
      "thumbnail_url": null,
      "language_id": 1,
      "default_service_type_id": 1,
      "downloaded": true,
      "state": "delivered",
      "turnaround_level_id": 2,
      "deadline": "2017-03-14T02:10:44.000-04:00",
      "batch_name": "noriega",
      "error_description": ""
    },
    {
      "id": 1590058,
      "project_id": 18020,
      "batch_id": 66666,
      "duration": 114518,
      "attribute1": null,
      "attribute2": null,
      "video_id": null,
      "name": "Snapchat_TrumpChicagoNoSubtitles",
      "attribute3": null,
      "callback_url": null,
      "description": null,
      "created_at": "2017-03-31T17:35:33.000-04:00",
      "updated_at": "2017-04-03T11:22:01.000-04:00",
      "word_count": 262,
      "thumbnail_url": null,
      "language_id": 1,
      "default_service_type_id": 1,
      "downloaded": true,
      "state": "delivered",
      "turnaround_level_id": 2,
      "deadline": "2017-04-01T01:35:33.000-04:00",
      "batch_name": "snap_01",
      "error_description": ""
    }
  ],
  "summary": {
    "current_page": "2",
    "per_page": 10,
    "total_entries": 33,
    "total_pages": 4
  }
}

