{
  "files": [
    {
      "id": 1054682,
      "project_id": 18020,
      "batch_id": 46599,
      "duration": 303894,
      "attribute1": null,
      "attribute2": null,
      "video_id": null,
      "name": "25562_1_tt-breakingbad-14_wg_720p",
      "attribute3": null,
      "callback_url": null,
      "description": null,
      "created_at": "2016-05-10T16:15:50.000-04:00",
      "updated_at": "2016-05-11T12:13:14.000-04:00",
      "word_count": 873,
      "thumbnail_url": null,
      "language_id": 1,
      "default_service_type_id": 1,
      "downloaded": true,
      "state": "delivered",
      "turnaround_level_id": 1,
      "deadline": "2016-05-11T20:00:00.000-04:00",
      "batch_name": "test01",
      "error_description": ""
    },
    {
      "id": 1184832,
      "project_id": 18020,
      "batch_id": 51733,
      "duration": 552053,
      "attribute1": null,
      "attribute2": null,
      "video_id": null,
      "name": "Penelope_Cruz_I_Interview_I_TimesTalks",
      "attribute3": null,
      "callback_url": null,
      "description": null,
      "created_at": "2016-08-15T12:14:19.000-04:00",
      "updated_at": "2016-08-15T12:58:26.000-04:00",
      "word_count": 0,
      "thumbnail_url": null,
      "language_id": 13,
      "default_service_type_id": 1,
      "downloaded": false,
      "state": "error",
      "turnaround_level_id": 1,
      "deadline": "2016-08-19T20:00:00.000-04:00",
      "batch_name": "P Cruz TT",
      "error_description": "Non-Spanish Content"
    },
    {
      "id": 1185391,
      "project_id": 18020,
      "batch_id": 51762,
      "duration": 552053,
      "attribute1": null,
      "attribute2": null,
      "video_id": null,
      "name": "Penelope_Cruz_I_Interview_I_TimesTalks",
      "attribute3": null,
      "callback_url": null,
      "description": null,
      "created_at": "2016-08-15T17:19:15.000-04:00",
      "updated_at": "2016-08-17T14:11:34.000-04:00",
      "word_count": 1747,
      "thumbnail_url": null,
      "language_id": 1,
      "default_service_type_id": 1,
      "downloaded": true,
      "state": "delivered",
      "turnaround_level_id": 3,
      "deadline": "2016-08-16T20:00:00.000-04:00",
      "batch_name": "Cruz 02",
      "error_description": ""
    },
    {
      "id": 1190290,
      "project_id": 18020,
      "batch_id": 52017,
      "duration": 95488,
      "attribute1": null,
      "attribute2": null,
      "video_id": null,
      "name": "42111_1_19omran-video_wg_720p",
      "attribute3": null,
      "callback_url": null,
      "description": null,
      "created_at": "2016-08-18T17:44:47.000-04:00",
      "updated_at": "2016-08-19T13:10:59.000-04:00",
      "word_count": 85,
      "thumbnail_url": null,
      "language_id": 1,
      "default_service_type_id": 1,
      "downloaded": true,
      "state": "delivered",
      "turnaround_level_id": 2,
      "deadline": "2016-08-19T01:44:47.000-04:00",
      "batch_name": "aleppo-arabic",
      "error_description": ""
    },
    {
      "id": 1219223,
      "project_id": 18020,
      "batch_id": 53151,
      "duration": 0,
      "attribute1": null,
      "attribute2": null,
      "video_id": null,
      "name": "42399_1_obama-hawaii-intv_wg.en_US",
      "attribute3": null,
      "callback_url": null,
      "description": null,
      "created_at": "2016-09-08T07:34:45.000-04:00",
      "updated_at": "2016-09-09T10:03:42.000-04:00",
      "word_count": 1985,
      "thumbnail_url": null,
      "language_id": 1,
      "default_service_type_id": 4,
      "downloaded": true,
      "state": "delivered",
      "turnaround_level_id": null,
      "deadline": null,
      "batch_name": "Obama_Hawaii",
      "error_description": ""
    },
    {
      "id": 1384418,
      "project_id": 18020,
      "batch_id": 59882,
      "duration": 146325,
      "attribute1": null,
      "attribute2": null,
      "video_id": null,
      "name": "70135_1_POV-bias-E01_wg_v012_h264",
      "attribute3": null,
      "callback_url": null,
      "description": null,
      "created_at": "2016-12-14T14:45:42.000-05:00",
      "updated_at": "2016-12-14T16:21:37.000-05:00",
      "word_count": 417,
      "thumbnail_url": null,
      "language_id": 1,
      "default_service_type_id": 1,
      "downloaded": true,
      "state": "delivered",
      "turnaround_level_id": 6,
      "deadline": "2016-12-14T16:45:42.000-05:00",
      "batch_name": "Implicit Bias 20161214",
      "error_description": ""
    },
    {
      "id": 1384429,
      "project_id": 18020,
      "batch_id": 59882,
      "duration": 41600,
      "attribute1": null,
      "attribute2": null,
      "video_id": null,
      "name": "70136_1_POV-bias-E02_wg_v011_H264",
      "attribute3": null,
      "callback_url": null,
      "description": null,
      "created_at": "2016-12-14T14:48:26.000-05:00",
      "updated_at": "2016-12-14T16:21:37.000-05:00",
      "word_count": 94,
      "thumbnail_url": null,
      "language_id": 1,
      "default_service_type_id": 1,
      "downloaded": true,
      "state": "delivered",
      "turnaround_level_id": 6,
      "deadline": "2016-12-14T16:48:26.000-05:00",
      "batch_name": "Implicit Bias 20161214",
      "error_description": ""
    },
    {
      "id": 1384437,
      "project_id": 18020,
      "batch_id": 59882,
      "duration": 137046,
      "attribute1": null,
      "attribute2": null,
      "video_id": null,
      "name": "70137_1_POV-bias-E03_wg_v011_H264",
      "attribute3": null,
      "callback_url": null,
      "description": null,
      "created_at": "2016-12-14T14:54:17.000-05:00",
      "updated_at": "2016-12-14T16:21:37.000-05:00",
      "word_count": 384,
      "thumbnail_url": null,
      "language_id": 1,
      "default_service_type_id": 1,
      "downloaded": true,
      "state": "delivered",
      "turnaround_level_id": 6,
      "deadline": "2016-12-14T16:54:17.000-05:00",
      "batch_name": "Implicit Bias 20161214",
      "error_description": ""
    },
    {
      "id": 1384464,
      "project_id": 18020,
      "batch_id": 59882,
      "duration": 159466,
      "attribute1": null,
      "attribute2": null,
      "video_id": null,
      "name": "70138_1_POV-bias-E04_wg_v009_H264",
      "attribute3": null,
      "callback_url": null,
      "description": null,
      "created_at": "2016-12-14T15:03:50.000-05:00",
      "updated_at": "2016-12-14T16:21:38.000-05:00",
      "word_count": 485,
      "thumbnail_url": null,
      "language_id": 1,
      "default_service_type_id": 1,
      "downloaded": true,
      "state": "delivered",
      "turnaround_level_id": 6,
      "deadline": "2016-12-14T17:03:50.000-05:00",
      "batch_name": "Implicit Bias 20161214",
      "error_description": ""
    },
    {
      "id": 1384564,
      "project_id": 18020,
      "batch_id": 59882,
      "duration": 123947,
      "attribute1": null,
      "attribute2": null,
      "video_id": null,
      "name": "70139_1_POV-bias_E05_V009_H264",
      "attribute3": null,
      "callback_url": null,
      "description": null,
      "created_at": "2016-12-14T15:27:52.000-05:00",
      "updated_at": "2016-12-14T19:34:29.000-05:00",
      "word_count": 394,
      "thumbnail_url": null,
      "language_id": 1,
      "default_service_type_id": 1,
      "downloaded": true,
      "state": "delivered",
      "turnaround_level_id": 6,
      "deadline": "2016-12-14T17:27:52.000-05:00",
      "batch_name": "Implicit Bias 20161214",
      "error_description": ""
    }
  ],
  "summary": {
    "current_page": 1,
    "per_page": 10,
    "total_entries": 33,
    "total_pages": 4
  }
}

